^C:\USERS\SHOUGH\DOCUMENTS\C DRIVE\MY DOCUMENTS\NHTI\COURSES\CP222_SPR_2011\LABS\LAB4 - SERIAL PORT\SERIALPORT LOOPBACK SOURCE CODE STARTER\SERIALTESTAPP\WINDOWSAPPLICATION1\FRMMAIN.RESX
^C:\USERS\SHOUGH\DOCUMENTS\C DRIVE\MY DOCUMENTS\NHTI\COURSES\CP222_SPR_2011\LABS\LAB4 - SERIAL PORT\SERIALPORT LOOPBACK SOURCE CODE STARTER\SERIALTESTAPP\WINDOWSAPPLICATION1\PROPERTIES\RESOURCES.RESX
C:\WINDOWS\MICROSOFT.NET\FRAMEWORK\V2.0.50727\CONFIG\SECURITY.CONFIG
C:\WINDOWS\MICROSOFT.NET\FRAMEWORK\V2.0.50727\CONFIG\ENTERPRISESEC.CONFIG
